…
```{r}
table1
#> # A tibble: 6 × 4
#>   country      year  cases population
#>   <chr>       <int>  <int>      <int>
#> 1 Afghanistan  1999    745   19987071
#> 2 Afghanistan  2000   2666   20595360
#> 3 Brazil       1999  37737  172006362
#> 4 Brazil       2000  80488  174504898
#> 5 China        1999 212258 1272915272
#> 6 China        2000 213766 1280428583
table2
#> # A tibble: 12 × 4
#>   country      year type           count
#>   <chr>       <int> <chr>          <int>
#> 1 Afghanistan  1999 cases            745
#> 2 Afghanistan  1999 population  19987071
#> 3 Afghanistan  2000 cases           2666
#> 4 Afghanistan  2000 population  20595360
#> 5 Brazil       1999 cases          37737
#> 6 Brazil       1999 population 172006362
#> # ... with 6 more rows
…
# Visualise changes over time
library(ggplot2)
ggplot(table1, aes(year, cases)) + 
  geom_line(aes(group = country), colour = "grey50") + 
  geom_point(aes(colour = country))

```

Note: Understanding whether data frame structue is optimal (or in other words: Tidy) is a FUNDAMENTAL skill as a marine scientist. 

```{r}
billboard
#> # A tibble: 317 × 79
#>   artist       track               date.entered   wk1   wk2   wk3   wk4   wk5
#>   <chr>        <chr>               <date>       <dbl> <dbl> <dbl> <dbl> <dbl>
#> 1 2 Pac        Baby Don't Cry (Ke... 2000-02-26      87    82    72    77    87
#> 2 2Ge+her      The Hardest Part O... 2000-09-02      91    87    92    NA    NA
#> 3 3 Doors Down Kryptonite          2000-04-08      81    70    68    67    66
#> 4 3 Doors Down Loser               2000-10-21      76    76    72    69    67
#> 5 504 Boyz     Wobble Wobble       2000-04-15      57    34    25    17    17
#> 6 98^0         Give Me Just One N... 2000-08-19      51    39    34    26    26
#> # ℹ 311 more rows
#> # ℹ 71 more variables: wk6 <dbl>, wk7 <dbl>, wk8 <dbl>, wk9 <dbl>, ...
```
…
    values_to = "value"
  )
#> # A tibble: 6 × 3
#>   id    measurement value
#>   <chr> <chr>       <dbl>
#> 1 A     bp1           100
#> 2 A     bp2           120
#> 3 B     bp1           140
#> 4 B     bp2           115
#> 5 C     bp1           120
#> 6 C     bp2           125
```
```{r}
cms_patient_experience
#> # A tibble: 500 × 5
#>   org_pac_id org_nm                     measure_cd   measure_title   prf_rate
#>   <chr>      <chr>                      <chr>        <chr>              <dbl>
#> 1 0446157747 USC CARE MEDICAL GROUP INC CAHPS_GRP_1  CAHPS for MIPS...       63
#> 2 0446157747 USC CARE MEDICAL GROUP INC CAHPS_GRP_2  CAHPS for MIPS...       87
#> 3 0446157747 USC CARE MEDICAL GROUP INC CAHPS_GRP_3  CAHPS for MIPS...       86
#> 4 0446157747 USC CARE MEDICAL GROUP INC CAHPS_GRP_5  CAHPS for MIPS...       57
#> 5 0446157747 USC CARE MEDICAL GROUP INC CAHPS_GRP_8  CAHPS for MIPS...       85
#> 6 0446157747 USC CARE MEDICAL GROUP INC CAHPS_GRP_12 CAHPS for MIPS...       24
#> # ℹ 494 more rows
```
…
```{r}
cms_patient_experience |> 
  pivot_wider(
    names_from = measure_cd,
    values_from = prf_rate
  )
#> # A tibble: 500 × 9
#>   org_pac_id org_nm                   measure_title   CAHPS_GRP_1 CAHPS_GRP_2
#>   <chr>      <chr>                    <chr>                 <dbl>       <dbl>
#> 1 0446157747 USC CARE MEDICAL GROUP ... CAHPS for MIPS...          63          NA
#> 2 0446157747 USC CARE MEDICAL GROUP ... CAHPS for MIPS...          NA          87
#> 3 0446157747 USC CARE MEDICAL GROUP ... CAHPS for MIPS...          NA          NA
#> 4 0446157747 USC CARE MEDICAL GROUP ... CAHPS for MIPS...          NA          NA
#> 5 0446157747 USC CARE MEDICAL GROUP ... CAHPS for MIPS...          NA          NA
#> 6 0446157747 USC CARE MEDICAL GROUP ... CAHPS for MIPS...          NA          NA
#> # ℹ 494 more rows
#> # ℹ 4 more variables: CAHPS_GRP_3 <dbl>, CAHPS_GRP_5 <dbl>, ...
```


```{r}
cms_patient_experience |> 
  pivot_wider(
    id_cols = starts_with("org"),
    names_from = measure_cd,
    values_from = prf_rate
  )
#> # A tibble: 95 × 8
#>   org_pac_id org_nm           CAHPS_GRP_1 CAHPS_GRP_2 CAHPS_GRP_3 CAHPS_GRP_5
#>   <chr>      <chr>                  <dbl>       <dbl>       <dbl>       <dbl>
#> 1 0446157747 USC CARE MEDICA...          63          87          86          57
#> 2 0446162697 ASSOCIATION OF ...          59          85          83          63
#> 3 0547164295 BEAVER MEDICAL ...          49          NA          75          44
#> 4 0749333730 CAPE PHYSICIANS...          67          84          85          65
#> 5 0840104360 ALLIANCE PHYSIC...          66          87          87          64
#> 6 0840109864 REX HOSPITAL INC          73          87          84          67
#> # ℹ 89 more rows
#> # ℹ 2 more variables: CAHPS_GRP_8 <dbl>, CAHPS_GRP_12 <dbl>
```
…
